Real-time analysis and forecasting for outbreak analytics with R: All in One View
…
Case data

To illustrate the functions of EpiNow2 we will use
outbreak data of the start of the COVID-19 pandemic from the United
Kingdom. The data are available in the R package
incidence2.

R

dplyr::as_tibble(incidence2::covidregionaldataUK)

OUTPUT

# A tibble: 6,370 × 13
   date       region   region_code cases_new cases_total deaths_new deaths_total
   <date>     <chr>    <chr>           <dbl>       <dbl>      <dbl>        <dbl>
 1 2020-01-30 East Mi… E12000004          NA          NA         NA           NA
 2 2020-01-30 East of… E12000006          NA          NA         NA           NA
 3 2020-01-30 England  E92000001           2           2         NA           NA
 4 2020-01-30 London   E12000007          NA          NA         NA           NA
 5 2020-01-30 North E… E12000001          NA          NA         NA           NA
 6 2020-01-30 North W… E12000002          NA          NA         NA           NA
 7 2020-01-30 Norther… N92000002          NA          NA         NA           NA
 8 2020-01-30 Scotland S92000003          NA          NA         NA           NA
 9 2020-01-30 South E… E12000008          NA          NA         NA           NA
10 2020-01-30 South W… E12000009          NA          NA         NA           NA
# ℹ 6,360 more rows
# ℹ 6 more variables: recovered_new <dbl>, recovered_total <dbl>,
#   hosp_new <dbl>, hosp_total <dbl>, tested_new <dbl>, tested_total <dbl>
…
# filter dates in date_range
regional_cases <- regional_cases %>%
  dplyr::filter(magrittr::is_in(x = date, table = date_range))

dplyr::as_tibble(regional_cases)

OUTPUT

# A tibble: 1,170 × 3
   date       region           confirm
   <date>     <chr>              <dbl>
 1 2020-01-30 East Midlands          0
 2 2020-01-30 East of England        0
 3 2020-01-30 England                2
 4 2020-01-30 London                 0
 5 2020-01-30 North East             0
 6 2020-01-30 North West             0
 7 2020-01-30 Northern Ireland       0
 8 2020-01-30 Scotland               0
 9 2020-01-30 South East             0
10 2020-01-30 South West             0
# ℹ 1,160 more rows
…
dplyr::as_tibble(ebola_cases)

OUTPUT

# A tibble: 123 × 2
   date       confirm
   <date>       <dbl>
 1 2014-05-18       1
 2 2014-05-19       0
 3 2014-05-20       2
 4 2014-05-21       4
 5 2014-05-22       6
 6 2014-05-23       1
 7 2014-05-24       2
 8 2014-05-25       0
 9 2014-05-26      10
10 2014-05-27       8
# ℹ 113 more rows
…
R

# Load the Ebola 1976 data provided with the {cfr} package
data("ebola1976")

# Assume we only have the first 30 days of this data
ebola1976 %>%
  slice_head(n = 30) %>%
  as_tibble()

OUTPUT

# A tibble: 30 × 3
   date       cases deaths
   <date>     <int>  <int>
 1 1976-08-25     1      0
 2 1976-08-26     0      0
 3 1976-08-27     0      0
 4 1976-08-28     0      0
 5 1976-08-29     0      0
 6 1976-08-30     0      0
 7 1976-08-31     0      0
 8 1976-09-01     1      0
 9 1976-09-02     1      0
10 1976-09-03     1      0
# ℹ 20 more rows
…
R

# read data
# e.g.: if path to file is data/raw-data/ebola_cases.csv then:
sarscov2_input <-
  readr::read_csv(here::here("data", "raw-data", "sarscov2_cases_deaths.csv"))

R

# Inspect data
sarscov2_input

OUTPUT

# A tibble: 93 × 3
   date       cases_jpn deaths_jpn
   <date>         <dbl>      <dbl>
 1 2020-01-20         1          0
 2 2020-01-21         1          0
 3 2020-01-22         0          0
 4 2020-01-23         1          0
 5 2020-01-24         1          0
 6 2020-01-25         3          0
 7 2020-01-26         3          0
 8 2020-01-27         4          0
 9 2020-01-28         6          0
10 2020-01-29         7          0
# ℹ 83 more rows
…
R

# read data
# e.g.: if path to file is data/raw-data/ebola_cases.csv then:
sarscov2_input <-
  readr::read_csv(here::here("data", "raw-data", "sarscov2_cases_deaths.csv"))

R

# Inspect data
sarscov2_input

OUTPUT

# A tibble: 93 × 3
   date       cases_jpn deaths_jpn
   <date>         <dbl>      <dbl>
 1 2020-01-20         1          0
 2 2020-01-21         1          0
 3 2020-01-22         0          0
 4 2020-01-23         1          0
 5 2020-01-24         1          0
 6 2020-01-25         3          0
 7 2020-01-26         3          0
 8 2020-01-27         4          0
 9 2020-01-28         6          0
10 2020-01-29         7          0
# ℹ 83 more rows
…
Challenges

Aggregated data differ from linelists

Aggregated incidence data differs from
linelist data, where each observation contains
individual-level data.

R

outbreaks::ebola_sierraleone_2014 %>% as_tibble()

OUTPUT

# A tibble: 11,903 × 8
      id   age sex   status    date_of_onset date_of_sample district chiefdom
   <int> <dbl> <fct> <fct>     <date>        <date>         <fct>    <fct>
 1     1    20 F     confirmed 2014-05-18    2014-05-23     Kailahun Kissi Teng
 2     2    42 F     confirmed 2014-05-20    2014-05-25     Kailahun Kissi Teng
 3     3    45 F     confirmed 2014-05-20    2014-05-25     Kailahun Kissi Tonge
 4     4    15 F     confirmed 2014-05-21    2014-05-26     Kailahun Kissi Teng
 5     5    19 F     confirmed 2014-05-21    2014-05-26     Kailahun Kissi Teng
 6     6    55 F     confirmed 2014-05-21    2014-05-26     Kailahun Kissi Teng
 7     7    50 F     confirmed 2014-05-21    2014-05-26     Kailahun Kissi Teng
 8     8     8 F     confirmed 2014-05-22    2014-05-27     Kailahun Kissi Teng
 9     9    54 F     confirmed 2014-05-22    2014-05-27     Kailahun Kissi Teng
10    10    57 F     confirmed 2014-05-22    2014-05-27     Kailahun Kissi Teng
# ℹ 11,893 more rows
…
# Read linelist
mers_korea_2015$linelist %>%
  as_tibble() %>%
  select(starts_with("dt_"))

OUTPUT

# A tibble: 162 × 6
   dt_onset   dt_report  dt_start_exp dt_end_exp dt_diag    dt_death
   <date>     <date>     <date>       <date>     <date>     <date>
 1 2015-05-11 2015-05-19 2015-04-18   2015-05-04 2015-05-20 NA
 2 2015-05-18 2015-05-20 2015-05-15   2015-05-20 2015-05-20 NA
 3 2015-05-20 2015-05-20 2015-05-16   2015-05-16 2015-05-21 2015-06-04
 4 2015-05-25 2015-05-26 2015-05-16   2015-05-20 2015-05-26 NA
 5 2015-05-25 2015-05-27 2015-05-17   2015-05-17 2015-05-26 NA
 6 2015-05-24 2015-05-28 2015-05-15   2015-05-17 2015-05-28 2015-06-01
 7 2015-05-21 2015-05-28 2015-05-16   2015-05-17 2015-05-28 NA
 8 2015-05-26 2015-05-29 2015-05-15   2015-05-15 2015-05-29 NA
 9 NA         2015-05-29 2015-05-15   2015-05-17 2015-05-29 NA
10 2015-05-21 2015-05-29 2015-05-16   2015-05-16 2015-05-29 NA
# ℹ 152 more rows
…
sim_chains_max

OUTPUT

# A tibble: 1,000 × 3
   simulation_id day_max cases_total
   <fct>           <dbl>       <int>
 1 1                   0           1
 2 2                   0           1
 3 3                   0           1
 4 4                   0           1
 5 5                   0           1
 6 6                   0           1
 7 7                   0           1
 8 8                   0           1
 9 9                   0           1
10 10                  0           1
# ℹ 990 more rows
…
