Real-time analysis and forecasting for outbreak analytics with R: Simulate transmission chains
…
sim_chains_max

OUTPUT

# A tibble: 1,000 × 3
   simulation_id day_max cases_total
   <fct>           <dbl>       <int>
 1 1                   0           1
 2 2                   0           1
 3 3                   0           1
 4 4                   0           1
 5 5                   0           1
 6 6                   0           1
 7 7                   0           1
 8 8                   0           1
 9 9                   0           1
10 10                  0           1
# ℹ 990 more rows
…
